-1.0232 -0.4569 0.9702
-0.4003 2.2518 0.4459
0.2584 0.8734 1.7367

-0.71175 0.89745 0.70805
-0.71175 0.89745 0.70805
-0.71175 0.89745 0.70805

# This coordinates was supposed to lay on the bottom edge of the triangle

-0.35588 0.44872 0.35402
-0.35588 0.44872 0.35402
-0.35588 0.44872 0.35402

# The order of vertices is reversed
# On the bottom edge 
